HTTP/1.1 200 OK
Connection: close

{"status":200,"result":{"totalResults":20,"totalPages":10,"perPage":2,"page":5,"pipelines":[{"id":"guid-a","name":"name-a","definition":{}},{"id":"guid-b","name":"name-b","definition":{}}]}}