HTTP/1.1 200 OK
Connection: close

{
    "result": {
        "apps": [
            {
                "id": "guid-a",
                "name": "name-a"
            },
            {
                "id": "guid-b",
                "name": "name-b"
            }
        ],
        "page": 0,
        "perPage": 2,
        "totalPages": 10,
        "totalResults": 20
    },
    "status": 200
}